0,Leclercq,Morgan,20/02/2021,08H00,16H00
2,Jupille,Ryan,20/02/2021,13H00,16H00
6,Cetre,Maximilien,20/02/2021,10H00,16H00
7,Corcoral,Thomas,20/02/2021,06H00,18H00
12,Guilloit,Lilou,20/02/2021,08H00,15H00
17,Meunier,Etienne,20/02/2021,08H00,16H00
23,Galarneau,Melina,20/02/2021,08H00,18H00
27,Dastous,Elise,20/02/2021,07H00,12H00
29,Vadnais,Alban,20/02/2021,11H00,17H00
37,Moreau,Samuel,20/02/2021,08H00,11H00
38,Lessard,Clement,20/02/2021,06H00,12H00
39,Vertfeuille,Maelle,20/02/2021,05H00,14H00
43,Garnier,Clarisse,20/02/2021,12H00,16H00
47,Busson,Emilie,20/02/2021,09H00,17H00
49,Jacquet,Noa,20/02/2021,09H00,11H00
52,Samuel,Etienne,12/03/2021,04H00,12H00
53,Roux,Guy,14/03/2021,05H00,11H00
53,Roux,Guy,14/03/2021,14H00,17H00
53,Ghy ,Roux,01/02/2023,02H10,02H20
54,Test,test,01/04/2021,08H10,13H00
